…
or specify a year

``` r
## get data on the 99th Congress
cng1961 <- read_voteview(1961)
```

## Data

A tibble is returned

``` r
## preview tibble
cng116
#> # A tibble: 538 x 23
#>    congress chamber icpsr state_icpsr district_code state_abbrev party_code occupancy
#>       <dbl> <chr>   <dbl>       <dbl>         <dbl> <chr>             <dbl> <lgl>    
#>  1      116 House   20301          41             3 AL                  200 NA       
#>  2      116 House   21102          41             7 AL                  100 NA       
#>  3      116 House   21192          41             2 AL                  200 NA       
#>  4      116 House   21193          41             5 AL                  200 NA       
#>  5      116 House   21376          41             1 AL                  200 NA       
#>  6      116 House   21500          41             6 AL                  200 NA       
#>  7      116 House   29701          41             4 AL                  200 NA       
#>  8      116 House   14066          81             1 AK                  200 NA       
#>  9      116 House   20305          61             3 AZ                  100 NA       
#> 10      116 House   20902          61             2 AZ                  100 NA       
#> # … with 528 more rows, and 15 more variables: last_means <lgl>, bioname <chr>,
#> #   bioguide_id <chr>, born <dbl>, died <lgl>, nominate_dim1 <dbl>, nominate_dim2 <dbl>,
#> #   nominate_log_likelihood <dbl>, nominate_geo_mean_probability <dbl>,
#> #   nominate_number_of_votes <dbl>, nominate_number_of_errors <dbl>, conditional <lgl>,
#> #   nokken_poole_dim1 <dbl>, nokken_poole_dim2 <dbl>, .timestamp <dttm>
```
…
